<?xml version="1.0" encoding="UTF-8"?>
<svg id="svg2" version="1.1" viewBox="0 0 359.98 269.92" xmlns="http://www.w3.org/2000/svg">
 <defs id="defs6">
  <clipPath id="clipPath18">
   <path id="path16" d="M 0,327.248 H 416.851 V 0 H 0 Z"/>
  </clipPath>
  <clipPath id="clipPath78">
   <path id="path76" d="M 0,327.248 H 416.851 V 0 H 0 Z"/>
  </clipPath>
  <clipPath id="clipPath98">
   <path id="path96" d="M 0,327.248 H 416.851 V 0 H 0 Z"/>
  </clipPath>
 </defs>
 <g id="g10" transform="matrix(1.3333 0 0 -1.3333 -95.067 357.02)">
  <g id="g983">
   <text id="text70" transform="matrix(1,0,0,-1,127.2,123.15)" fill="#231f20" font-family="'Lato Black'" font-size="53px" font-weight="900"><tspan id="tspan68" x="0 39.696999 67.945999 100.064 134.302 164.459 194.616" y="0">DebConf</tspan></text>
   <g id="g72">
    <g id="g74" clip-path="url(#clipPath78)">
     <g id="g80" transform="translate(148.18,115.78)">
      <path id="path82" d="m0 0c2.329 0 4.427-0.339 6.292-1.019 1.866-0.679 3.457-1.623 4.772-2.831s2.325-2.647 3.025-4.318c0.7-1.672 1.051-3.51 1.051-5.516 0-1.725-0.243-3.321-0.727-4.788-0.486-1.466-1.149-2.862-1.99-4.188s-1.818-2.611-2.928-3.85c-1.111-1.24-2.292-2.496-3.542-3.768l-9.22-9.447c1.186 0.345 2.357 0.62 3.51 0.826 1.154 0.204 2.237 0.306 3.252 0.306h8.799c1.078 0 1.93-0.296 2.556-0.889 0.625-0.593 0.937-1.375 0.937-2.345v-5.823h-33.126v3.234c0 0.626 0.129 1.295 0.388 2.006 0.259 0.712 0.712 1.358 1.359 1.941l13.587 13.684c1.164 1.165 2.179 2.275 3.04 3.332 0.862 1.057 1.575 2.098 2.136 3.122 0.56 1.023 0.981 2.048 1.262 3.073 0.28 1.024 0.42 2.108 0.42 3.251 0 1.876-0.448 3.316-1.342 4.319-0.896 1.002-2.26 1.503-4.093 1.503-0.755 0-1.444-0.107-2.07-0.323s-1.186-0.507-1.682-0.873c-0.497-0.367-0.923-0.798-1.278-1.294-0.356-0.496-0.642-1.035-0.858-1.618-0.344-0.97-0.782-1.671-1.31-2.103-0.529-0.43-1.245-0.646-2.151-0.646-0.215 0-0.448 0.011-0.695 0.032-0.249 0.022-0.502 0.054-0.761 0.097l-5.305 0.938c0.344 2.351 1.008 4.4 1.989 6.147s2.2 3.202 3.656 4.367c1.456 1.164 3.122 2.032 4.998 2.604 1.876 0.571 3.893 0.857 6.049 0.857" fill="#15b7d1"/>
     </g>
     <g id="g84" transform="translate(191.4,91.711)">
      <path id="path86" d="m0 0c0 3.256-0.205 5.925-0.615 8.006s-0.954 3.715-1.634 4.901c-0.679 1.186-1.45 2-2.313 2.443-0.863 0.441-1.735 0.663-2.62 0.663-0.884 0-1.753-0.222-2.604-0.663-0.853-0.443-1.607-1.257-2.265-2.443s-1.185-2.82-1.585-4.901c-0.399-2.081-0.598-4.75-0.598-8.006 0-3.278 0.199-5.953 0.598-8.022 0.4-2.071 0.927-3.706 1.585-4.902 0.658-1.197 1.412-2.016 2.265-2.459 0.851-0.442 1.72-0.663 2.604-0.663 0.885 0 1.757 0.221 2.62 0.663 0.863 0.443 1.634 1.262 2.313 2.459 0.68 1.196 1.224 2.831 1.634 4.902 0.41 2.069 0.615 4.744 0.615 8.022m10.352 0c0-4.12-0.443-7.688-1.327-10.708s-2.108-5.521-3.671-7.505c-1.564-1.984-3.419-3.462-5.564-4.433-2.146-0.969-4.47-1.455-6.972-1.455s-4.814 0.486-6.938 1.455c-2.125 0.971-3.963 2.449-5.517 4.433-1.552 1.984-2.765 4.485-3.639 7.505-0.872 3.02-1.31 6.588-1.31 10.708 0 4.118 0.438 7.687 1.31 10.708 0.874 3.019 2.087 5.521 3.639 7.505 1.554 1.983 3.392 3.455 5.517 4.415 2.124 0.96 4.436 1.439 6.938 1.439s4.826-0.479 6.972-1.439c2.145-0.96 4-2.432 5.564-4.415 1.563-1.984 2.787-4.486 3.671-7.505 0.884-3.021 1.327-6.59 1.327-10.708" fill="#15b7d1"/>
     </g>
    </g>
   </g>
   <text id="text90" transform="matrix(1,0,0,-1,206,67.568)" fill="#231f20" font-family="Lato" font-size="59.5px"><tspan id="tspan88" x="0 43.910999 73.0065 87.167503 106.148" y="0">Haifa</tspan></text>
  </g>
  <g id="g1047">
   <g id="g12">
    <g id="g14" clip-path="url(#clipPath18)">
     <g id="g20" transform="translate(240.83,209.98)">
      <path id="path22" d="m0 0c-1.204-0.017 0.227-0.619 1.799-0.862 0.436 0.341 0.828 0.682 1.18 1.015-0.978-0.239-1.974-0.244-2.979-0.153" fill="#15b7d1"/>
     </g>
     <g id="g24" transform="translate(247.29,211.59)">
      <path id="path26" d="m0 0c0.72 0.99 1.242 2.073 1.427 3.193-0.162-0.797-0.594-1.486-1.003-2.214-2.251-1.418-0.213 0.84-2e-3 1.701-2.419-3.049-0.333-1.828-0.422-2.68" fill="#15b7d1"/>
     </g>
     <g id="g28" transform="translate(249.68,217.8)">
      <path id="path30" d="m0 0c0.147 2.169-0.426 1.482-0.619 0.656 0.224-0.118 0.402-1.53 0.619-0.656" fill="#15b7d1"/>
     </g>
     <g id="g32" transform="translate(236.26,247.44)">
      <path id="path34" d="m0 0c0.644-0.114 1.39-0.203 1.282-0.357 0.706 0.156 0.865 0.295-1.282 0.357" fill="#15b7d1"/>
     </g>
     <g id="g36" transform="translate(237.54,247.09)">
      <path id="path38" d="m0 0-0.452-0.094 0.422 0.038z" fill="#15b7d1"/>
     </g>
     <g id="g40" transform="translate(257.59,216.98)">
      <path id="path42" d="m0 0c0.073-1.947-0.568-2.894-1.147-4.566l-1.042-0.519c-0.852-1.655 0.084-1.051-0.526-2.367-1.332-1.183-4.035-3.698-4.9-3.929-0.633 0.014 0.427 0.746 0.566 1.032-1.78-1.221-1.429-1.835-4.152-2.578l-0.079 0.178c-6.714-3.159-16.041 3.101-15.918 11.641-0.072-0.541-0.204-0.407-0.353-0.624-0.346 4.393 2.03 8.806 6.037 10.611 3.919 1.939 8.515 1.144 11.32-1.475-1.541 2.021-4.611 4.162-8.246 3.964-3.564-0.058-6.899-2.322-8.01-4.781-1.825-1.149-2.038-4.43-2.833-5.031-1.072-7.867 2.012-11.264 7.23-15.262 0.819-0.554 0.231-0.638 0.34-1.059-1.733 0.811-3.319 2.036-4.625 3.536 0.693-1.013 1.441-1.998 2.406-2.772-1.634 0.553-3.818 3.96-4.454 4.099 2.817-5.044 11.427-8.846 15.939-6.959-2.088-0.077-4.739-0.043-7.082 0.824-0.988 0.507-2.326 1.556-2.085 1.751 6.154-2.298 12.509-1.739 17.834 2.528 1.356 1.056 2.836 2.851 3.263 2.875-0.643-0.969 0.111-0.466-0.383-1.321 1.347 2.178-0.588 0.887 1.393 3.76l0.733-1.008c-0.275 1.808 2.244 4.003 1.988 6.86 0.578 0.874 0.643-0.941 0.031-2.951 0.851 2.231 0.225 2.589 0.443 4.43 0.234-0.619 0.546-1.276 0.705-1.93-0.554 2.156 0.567 3.63 0.845 4.883-0.275 0.121-0.855-0.953-0.989 1.593 0.021 1.105 0.31 0.579 0.42 0.851-0.217 0.125-0.786 0.973-1.132 2.599 0.249 0.383 0.671-0.99 1.013-1.046-0.221 1.292-0.599 2.277-0.614 3.269-1 2.088-0.355-0.278-1.164 0.897-1.064 3.315 0.882 0.769 1.014 2.275 1.61-2.333 2.528-5.952 2.951-7.45-0.322 1.827-0.841 3.598-1.477 5.311 0.49-0.207-0.789 3.757 0.636 1.132-1.522 5.597-6.51 10.829-11.1 13.282 0.56-0.514 1.268-1.158 1.016-1.26-2.285 1.358-1.883 1.465-2.21 2.039-1.858 0.757-1.982-0.062-3.211-2e-3 -3.506 1.86-4.182 1.663-7.409 2.827l0.147-0.686c-2.321 0.773-2.705-0.292-5.214-2e-3 -0.152 0.118 0.804 0.431 1.592 0.546-2.245-0.297-2.141 0.443-4.338-0.082 0.541 0.379 1.115 0.631 1.692 0.955-1.831-0.112-4.372-1.067-3.588-0.198-2.986-1.333-8.29-3.203-11.266-5.995l-0.094 0.626c-1.363-1.636-5.947-4.889-6.312-7.011l-0.366-0.084c-0.708-1.203-1.168-2.564-1.731-3.799-0.927-1.582-1.36-0.61-1.228-0.858-1.826-3.701-2.734-6.81-3.516-9.362 0.557-0.835 0.013-5.023 0.223-8.375-0.915-16.559 11.621-32.634 25.325-36.345 2.008-0.719 4.995-0.694 7.535-0.765-2.996 0.858-3.384 0.454-6.305 1.472-2.105 0.993-2.566 2.125-4.059 3.42l0.59-1.044c-2.925 1.036-1.701 1.283-4.082 2.035l0.631 0.824c-0.948 0.072-2.512 1.597-2.939 2.444l-1.038-0.041c-1.246 1.536-1.912 2.647-1.862 3.506l-0.336-0.598c-0.379 0.653-4.587 5.77-2.404 4.578-0.405 0.37-0.944 0.602-1.528 1.665l0.443 0.507c-1.048 1.352-1.933 3.084-1.864 3.661 0.559-0.755 0.948-0.898 1.333-1.027-2.653 6.58-2.801 0.361-4.809 6.697l0.424 0.034c-0.325 0.493-0.524 1.024-0.785 1.547l0.185 1.841c-1.909 2.206-0.534 9.386-0.256 13.323 0.188 1.601 1.592 3.306 2.659 5.98l-0.65 0.11c1.244 2.167 7.094 8.704 9.806 8.369 1.313 1.65-0.262 7e-3 -0.518 0.421 2.884 2.985 3.791 2.109 5.738 2.646 2.097 1.245-1.802-0.487-0.807 0.474 3.629 0.927 2.57 2.108 7.305 2.578 0.499-0.284-1.158-0.439-1.574-0.807 3.022 1.479 9.566 1.142 13.818-0.82 4.931-2.307 10.473-9.12 10.692-15.53l0.249-0.067c-0.126-2.548 0.39-5.495-0.504-8.202l0.604 1.282" fill="#15b7d1"/>
     </g>
     <g id="g44" transform="translate(227.68,208.33)">
      <path id="path46" d="m0 0-0.17-0.844c0.792-1.076 1.421-2.242 2.431-3.08-0.727 1.418-1.266 2.004-2.261 3.924" fill="#15b7d1"/>
     </g>
     <g id="g48" transform="translate(229.55,208.4)">
      <path id="path50" d="m0 0c-0.419 0.465-0.666 1.022-0.945 1.576 0.266-0.975 0.811-1.814 1.316-2.669l-0.371 1.093" fill="#15b7d1"/>
     </g>
     <g id="g52" transform="translate(262.67,215.6)">
      <path id="path54" d="m0 0-0.177-0.444c-0.324-2.304-1.026-4.583-2.099-6.698 1.186 2.231 1.951 4.67 2.276 7.142" fill="#15b7d1"/>
     </g>
     <g id="g56" transform="translate(236.5,248.02)">
      <path id="path58" d="M 0,0 C 0.813,0.297 2.001,0.163 2.866,0.359 1.739,0.265 0.618,0.208 -0.488,0.067 L 0,0" fill="#15b7d1"/>
     </g>
     <g id="g60" transform="translate(207.91,232.82)">
      <path id="path62" d="m0 0c0.187-1.736-1.306-2.41 0.33-1.265 0.879 1.979-0.342 0.546-0.33 1.265" fill="#15b7d1"/>
     </g>
     <g id="g64" transform="translate(205.99,224.78)">
      <path id="path66" d="M 0,0 C 0.378,1.158 0.445,1.854 0.59,2.524 -0.452,1.191 0.109,0.907 0,0" fill="#15b7d1"/>
     </g>
    </g>
   </g>
   <g id="g92">
    <g id="g94" clip-path="url(#clipPath98)">
     <g id="g100" transform="translate(185.08,195.76)">
      <path id="path102" d="m0 0c0.051-1.139-0.193-2.626-0.541-3.676-0.387-1.039-0.846-1.628-1.048-1.266l-0.489-0.248c0.07 0.189 0.182 0.446 0.292 0.764 0.09 0.332 0.222 0.701 0.325 1.115 0.206 0.83 0.392 1.788 0.525 2.615 0.062 0.415 0.129 0.788 0.202 1.085 0.053 0.302 0.113 0.528 0.184 0.638 0.132 0.223 0.353-0.025 0.55-1.027" fill="#15b7d1"/>
     </g>
     <g id="g104" transform="translate(187.77,196.29)">
      <path id="path106" d="m0 0c-0.292-2.147-0.389-0.487-0.59-0.126 0.01 0.967 0.02 1.943 6e-3 3.01 0.26 0.956 0.498-1.672 0.584-2.884" fill="#fff"/>
     </g>
     <g id="g108" transform="translate(193.39,194.73)">
      <path id="path110" d="m0 0 0.166 1.058c-0.084-0.532-0.143-1.18-0.205-1.829-0.088-0.654-0.158-1.301-0.208-1.817-0.313-0.037-0.38 1.96-0.253 3.979 0.224-0.438 0.18-2.468 0.5-1.391" fill="#15b7d1"/>
     </g>
     <g id="g112" transform="translate(154.87,180.75)">
      <path id="path114" d="m0 0c-0.484-0.326-0.276-1.164 0.552-2.123 0.408-0.493 0.963-1.036 1.663-1.532 0.686-0.538 1.52-1.004 2.44-1.451-0.594-0.445-1.218-0.884-1.873-1.316-1.418 0.802-3.612 1.549-5.863 2.629-2.262 1.048-4.613 2.325-6.529 3.623-0.82 0.371-0.047-0.38 0.498-0.895 0.547-0.511 0.767-0.876-1.248 0.274-0.28 0.506 0.272 0.641-0.417 1.329-1.737 1.002-2.406 0.955-3.439 1.342-0.512 0.196-1.137 0.491-1.999 1.104-0.429 0.309-0.923 0.693-1.502 1.178-0.29 0.243-0.587 0.518-0.915 0.817-0.344 0.323-0.715 0.672-1.119 1.051-0.059 0.063-0.131 0.141-0.205 0.22-0.054 0.059-0.122 0.132-0.191 0.207l-0.01 0.015c-0.25 0.653-0.643 1.394-1.074 2.085-1.182 0.941-2.485 1.724-3.815 2.302-1.34 0.542-2.696 0.847-4.016 0.946-2.634 0.067-5.115-0.854-7.414-2.613-0.136-0.097-0.313-0.205-0.418-0.293-0.056-0.074-0.116-0.142-0.179-0.206-0.131-0.086-0.27-0.311-0.416-0.507-0.155-0.162-0.295-0.443-0.445-0.7l-0.227-0.386-0.208-0.46c-0.573-1.206-1.062-2.678-1.459-4.215-0.822-3.07-1.402-6.377-1.97-9.645 0.517-2.403-0.278-9.238 0.088-13.467l-0.469-0.087c0.674-2.424-0.403-6.522-0.353-9.553l-0.467-2.714c-0.747-1.041-0.234 7.761-1.379 5.33-0.684-5.822 0.94-9.798 0.161-14.809-0.196-4.875 0.282-4.31 0.454-7.341 0.39-0.779 0.413 0.987 0.877 0.672 0.012-5.474-0.631-8.493-1.287-11.171-0.658-2.666-1.241-5.176-1.558-9.985 0.297-0.359 0.119-8.14 1.304-0.977l-0.023 3.433 0.599 2.292c-0.208-2.623-0.746-7.489-0.317-6.956-0.81-1.697-1.04-6.276-1.518-9.547-0.228-1.632-0.456-2.925-0.62-3.32-0.172-0.396-0.155 0.114-0.179 2.038 1.177 4.516 1.24 5.855 1.121 8.827-0.633-5.089-1.552-9.942-3.115-14.424-1.533-4.489-3.948-8.495-6.95-11.62-0.487-0.706-1.036-1.358-1.597-2.005-0.166 0.038-1.091-0.584-2.385-1.49-1.318-0.87-3.021-2.012-4.786-2.989-1.463-0.935-3.456-1.936-2.933-1.777-0.319-0.235 2.969 1.401 5.424 2.958 1.249 0.739 2.252 1.506 2.658 1.686 0.383 0.215 0.141-0.114-1.305-1.274-4.023-2.646-8.462-4.615-12.552-6.19-4.094-1.575-7.846-2.793-10.663-3.748 4.106 1.415 7.071 2.427 11.205 4.446 3.527 1.641 7.044 3.536 10.315 5.866 3.279 2.303 6.256 5.164 8.452 8.56 2.183 3.407 3.539 7.264 4.295 11.127 0.784 3.868 1.068 7.746 1.156 11.507 0.425 0.523 0.853 4.5 1.165 3.279 0.379 1.381 0.329 5.253 0.974 6.263 0.03 2.915 0.182 5.961 0.202 9.081 6e-3 3.099 0.01 6.239 0.014 9.347-7e-3 6.204 0.053 12.257 0.133 17.515-1.343-2.934-0.854 6.368-1.295 9.323 0.669 2.75 0.629 7.507 0.932 10.997-0.212 0.403-0.094 2.581-0.543 2.099-0.078-2.61-0.471-3.524-0.776-6.187-0.986 1.16 0.381 5.749 1.026 9.681 0.097-0.718 0.185-1.429 0.306-2.14 0.415 3.27 1.459 6.806 2.853 9.995 0.692 1.591 1.456 3.11 2.346 4.377 0.196 0.344 0.454 0.612 0.677 0.908 0.116 0.143 0.219 0.303 0.34 0.435l0.374 0.374 0.361 0.387 0.434 0.351c0.285 0.237 0.56 0.482 0.827 0.734-0.767-0.311-1.61-0.548-2.309-1.019-0.391-0.196-0.706-0.485-1.047-0.762-0.356-0.267-0.661-0.583-0.957-0.91l0.347 0.634 0.442 0.596c0.152 0.197 0.299 0.401 0.465 0.592l0.568 0.528c0.371 0.382 0.803 0.62 1.224 0.896 0.425 0.267 0.853 0.534 1.282 0.803 0.422 0.279 0.924 0.428 1.383 0.642 0.472 0.187 0.925 0.424 1.414 0.561 0.994 0.223 1.948 0.57 2.949 0.6 1.967 0.284 3.883 0 5.601-0.315 0.43-0.097 0.852-0.191 1.264-0.283 0.413-0.093 0.799-0.234 1.191-0.332 0.793-0.185 1.501-0.454 2.217-0.617-1.086 0.669-2.447 1.343-3.941 1.718-0.373 0.094-0.74 0.215-1.118 0.285-0.382 0.054-0.763 0.109-1.139 0.163-0.748 0.148-1.497 0.102-2.198 0.127-2.817-0.022-4.873-0.73-5.055 0.013 0.028 0.362 1.59 1.213 3.713 1.43 0.521 0.107 1.072 0.087 1.625 0.078 0.55-0.028 1.113 6e-3 1.637-0.103 1.054-0.183 2.036-0.382 2.742-0.701 2.103-0.807 3.937-1.807 5.594-2.906 1.663-1.105 3.17-2.231 4.578-3.576l0.082-0.076c0.027-0.027 0.058-0.048 0.088-0.071 2.511-2.039 5.14-3.873 7.643-5.599 2.529-1.738 4.95-3.413 7.51-5.293" fill="#15b7d1"/>
     </g>
     <g id="g116" transform="translate(143.83,191.15)">
      <path id="path118" d="m0 0c-0.557 0.461-1.047 0.867-1.482 1.228-0.223 0.175-0.431 0.34-0.626 0.496-0.099 0.074-0.196 0.147-0.288 0.217l-0.138 0.103-0.071 0.043-0.05 0.021-0.05 0.025c-1.076 0.933-1.828 1.312-2.463 1.598-0.647 0.253-1.137 0.404-1.734 0.581-0.592 0.182-1.243 0.45-2.233 0.893-0.978 0.458-2.303 1.09-4.34 1.838 0.764 0.181-0.037 0.796-1.589 1.481-0.801 0.252-1.783 0.577-2.834 0.693-1.057 0.098-2.159 0.196-3.134 0.03-0.466-0.11-0.938-0.223-1.415-0.336-0.471-0.132-0.932-0.313-1.406-0.463-0.47-0.153-0.944-0.307-1.418-0.463-0.446-0.202-0.889-0.405-1.331-0.607-0.442-0.201-0.88-0.401-1.314-0.599-0.404-0.227-0.783-0.474-1.164-0.707-0.377-0.238-0.744-0.471-1.1-0.696-0.175-0.115-0.349-0.229-0.518-0.34-0.194-0.168-0.382-0.332-0.568-0.492-1.088-0.834-1.548-1.111-1.507-0.631 0.011 0.237 0.259 0.664 0.798 1.269 0.596 0.706 1.207 1.132 2.121 1.752 0.529 0.237 1.026 0.51 1.577 0.739 0.566 0.212 1.135 0.426 1.711 0.64 1.103 0.496 2.391 0.728 3.619 1.077 2.541 0.479 5.263 0.636 7.884 0.183 2.601-0.46 5.053-1.363 7.202-2.564 2.163-1.226 3.996-2.627 5.609-4.448l0.018-0.032 0.019-0.03c0.012-0.026 0.137-0.149 0.236-0.255l0.303-0.318 0.584-0.642c0.379-0.435 0.747-0.85 1.092-1.284" fill="#15b7d1"/>
     </g>
     <g id="g120" transform="translate(147.62,182.8)">
      <path id="path122" d="m0 0c-2.015 1.312-2.344 2.119-2.687 2.86-0.348 0.74-0.695 1.435-2.63 2.751 2.129-0.509 1.954-1.691 5.465-4.169-0.767 0.336-1.557 0.653-2.318 1.028 0.69-0.852 1.428-1.652 2.17-2.47" fill="#fff"/>
     </g>
     <g id="g124" transform="translate(112.41,193.76)">
      <path id="path126" d="m0 0c-1.31-1.486-2.664-4.055-3.602-6.243-0.229-0.547-0.465-1.071-0.683-1.551-0.197-0.477-0.393-0.909-0.577-1.274-0.382-0.732-0.673-1.189-0.931-1.191-0.176-0.459-0.5 0.46-0.697-1.391 0.434 1.39 1.094 4.171 2.304 6.74 0.31 0.641 0.603 1.26 0.991 1.842 0.359 0.577 0.711 1.105 1.131 1.556 0.74 0.906 1.602 1.459 2.064 1.512" fill="#15b7d1"/>
     </g>
     <g id="g128" transform="translate(126.37,194.94)">
      <path id="path130" d="m0 0c-1.523-0.061-3.072 0.012-5.268-0.741 0.349 0.156 0.719 0.323 1.106 0.498 0.393 0.159 0.826 0.237 1.273 0.349 0.226 0.047 0.455 0.094 0.688 0.141 0.236 9e-3 0.478 3e-3 0.722-7e-3 0.487-0.041 0.991-0.024 1.479-0.24" fill="#fff"/>
     </g>
     <g id="g132" transform="translate(111.64,188.98)">
      <path id="path134" d="m0 0c0.876 0.268-0.806-2.499-1.016-3.379-0.283-0.557-0.52-1.129-0.784-1.701 0.21 1.735 0.851 3.926 1.8 5.08" fill="#15b7d1"/>
     </g>
     <g id="g136" transform="translate(105.61,162.95)">
      <path id="path138" d="m0 0c-0.383-4.493-0.79 4.714-1.026-0.642l-0.021 3.099 1.135 1.085z" fill="#15b7d1"/>
     </g>
     <g id="g140" transform="translate(104.58,156.11)">
      <path id="path142" d="m0 0c0.246-1.279 0.324-2.586 0.154-4.84l-0.402 1.239c-0.17 0.843 0.268 1.835 0.248 3.601" fill="#15b7d1"/>
     </g>
     <g id="g144" transform="translate(107.07,161.91)">
      <path id="path146" d="m0 0c0.195-2.155-0.334-1.821-0.58-3.191-0.318 0.822 0.538 5.374 0.58 3.191" fill="#15b7d1"/>
     </g>
     <g id="g148" transform="translate(113.05,140.6)">
      <path id="path150" d="M 0,0 C -0.758,1.988 -0.243,6.044 -0.409,9.897 -0.233,6.037 0.193,4.409 0,0" fill="#15b7d1"/>
     </g>
     <g id="g152" transform="translate(187.99,228.17)">
      <path id="path154" d="m 0,0 c 0.398,0.882 0.711,1.868 0.965,2.798 0.287,0.922 0.508,1.788 0.65,2.44 L 1.057,4.37 C 0.627,2.927 0.326,1.458 0,0" fill="#15b7d1"/>
     </g>
     <g id="g156" transform="translate(183.94,200.99)">
      <path id="path158" d="m 0,0 c 0.971,-2.014 0.449,1.508 1.312,5.288 0.377,4.989 0.253,10.289 1.303,15.241 l 0.227,3.09 C 1.99,20.703 1.043,16.61 0.504,12.324 -0.061,8.04 -0.216,3.58 0,0" fill="#15b7d1"/>
     </g>
     <g id="g160" transform="translate(188.78,197.4)">
      <path id="path162" d="m0 0c0.176 1.81-0.01 3.866-0.108 5.811-0.152 1.943-0.228 3.773-0.203 5.088-0.072-1.103-0.117-2.291-0.172-3.498-0.015-1.207-0.029-2.435-0.042-3.621 0.025-2.384 0.131-4.568 0-6.062 0.213-0.397 0.434 1.363 0.525 2.282" fill="#fff"/>
     </g>
     <g id="g164" transform="translate(218.85,264.22)">
      <path id="path166" d="m0 0c-2.954-1.146-6.458-2.731-9.754-4.902-3.298-2.152-6.355-4.889-8.465-7.758 2.369 2.287 2.465 2.334 6.463 5.471-0.64-0.714-1.346-1.36-2.037-2.052-0.706-0.677-1.481-1.31-2.221-2.021-0.759-0.689-1.558-1.386-2.301-2.176-0.379-0.394-0.761-0.792-1.148-1.194-0.36-0.425-0.715-0.867-1.064-1.323 2.453 2.843-0.395-1.167-1.999-3.89-1.685-2.483-3.568-5.912-5.094-9.777-1.547-3.857-2.743-8.124-3.553-12.108-0.197-1.746-0.88-5.42-1.192-8.497-0.334-3.074-0.313-5.517 0.306-4.723-0.148-4.882-1.044-5.549-1.302-9.223 0.101-0.678 0.181-1.347 0.244-2.008 0.058-0.638 0.084-1.177 0.104-1.764-5e-3 -0.57-0.046-1.129-0.091-1.683-0.092-0.539-0.158-1.085-0.294-1.599-0.518-2.07-1.495-3.861-2.768-5.173-1.249-1.347-2.727-2.243-4.381-3.065-1.664-0.819-3.564-1.558-5.866-2.483 0.206 0.458-0.834 0.423-2.238 0.344-0.728-0.042-1.47-0.084-2.433-0.165l-0.369-0.033-0.24-0.011c-0.159-9e-3 -0.312-0.017-0.457-0.024-0.291-0.015-0.555-0.028-0.776-0.04-0.478-0.014-1.033 0.018-1.639 0.013-0.6 0.059-1.25 0.079-1.912 0.176-1.326 0.16-2.708 0.485-3.939 0.799-0.615 0.155-1.188 0.349-1.703 0.457-0.51 0.142-0.953 0.261-1.304 0.299-0.701 0.078-1.026-0.063-0.704-0.674 1.074-1.115 3.207-1.827 5.481-2.165 2.292-0.354 4.682-0.328 6.9-0.631 2.208-0.225 2.707-0.413 2.3-0.618-0.374-0.197-1.925-0.425-3.36-0.594-1.516-0.102-3.292-0.122-4.696 0.017-0.709 0.02-1.321 0.094-1.779 0.083-0.458-0.01-0.76-0.086-0.823-0.255 0.61-2e-3 0.993-0.348 1.708-0.735 0.717-0.334 1.792-0.731 3.65-0.596-1.965-0.056-2.774-0.081-2.928-0.25-0.156-0.167 0.345-0.455 0.993-0.748 1.285-0.522 3.23-1.058 1.013-1.366 0.613-0.109 1.188-0.162 1.727-0.194s1.045-0.101 1.513-0.092c0.915-4e-3 1.698-8e-3 2.379-0.011 1.301-0.016 2.298-0.03 3.123-0.07 1.682-0.039 2.76-0.358 5.621-0.372 3.061 1.197 3.926 2.256 4.241 2.869 0.298 0.673 0.09 1.042 0.648 1.813 2.518 2.115 4.582 4.252 6.042 6.741 1.478 2.458 2.326 5.188 2.364 7.998 0.393-1.101 0.739-1.108 1.045-0.308 0.291 0.787 0.46 2.375 0.424 4.25-0.091 3.33-0.293 7.874-0.2 10.845 0.069 1.916 0.059 3.037-0.027 3.777-0.091 0.739-0.259 1.096-0.423 1.468-0.158 0.37-0.302 0.755-0.347 1.557-0.053 0.805 8e-3 2.027 0.352 4.05 0.69 1.95 0.647-0.155 0.676-2.068 0.058-1.927 0.213-3.666 0.893-1.091 4e-3 1.242 0.07 2.479 0.115 3.725-0.256 2.44-0.726 4.504-0.4 7.417 0.394 1.677 1.206 4.131 1.427 4.123-0.749-3.301 0.09-2.448 1.447 0.747 0.313 1.607 0.382 2.018 0.481 2.821-1-1.438-1.289-1.78-1.246-1.329 0.038 0.451 0.531 1.633 1.199 3.141 0.69 1.496 1.611 3.287 2.532 4.956 0.929 1.663 1.83 3.221 2.395 4.321 1.845 3.076 3.411 4.76 4.565 5.852 1.185 1.077 1.967 1.598 2.789 2.049 0.403 0.235 0.801 0.465 1.252 0.756 0.457 0.281 0.992 0.589 1.624 1.028 0.621 0.455 1.394 0.966 2.361 1.626 0.943 0.697 2.154 1.424 3.625 2.364-1.013-0.37-1.028-0.265-0.431 0.186 0.632 0.385 1.864 1.149 3.437 1.857 1.554 0.75 3.43 1.467 5.187 2.099 0.89 0.284 1.744 0.557 2.518 0.804 0.771 0.252 1.476 0.406 2.033 0.572 3.838 0.911 5.279 0.998 8.006 1.386 1.067 0.211 4.109 0.488 4.57 0.552-1.101-0.132-3.934-0.223-7.998-0.55-4.06-0.334-9.368-1-15.31-2.752-0.311-0.125-0.578-0.234-0.561-0.248" fill="#15b7d1"/>
     </g>
    </g>
   </g>
  </g>
 </g>
</svg>
